{
    "VFAT00":[[1390,2615],[1115,2615],[1125, 2470],[1075, 2460],[1010, 2190],[1100, 2190],[1470, 2240]],
    "VFAT01":[[1470, 2240],[1100, 2190],[1120, 1950],[1520, 1990]],
    "VFAT02":[[1520, 1990],[1120, 1950],[1150, 1650],[1580, 1700]],
    "VFAT03":[[1580, 1700],[1150, 1650],[1180, 1350],[1640, 1390]],
    "VFAT04":[[1640, 1390],[1180, 1350],[1160, 1350],[1180, 1020],[1700, 1085]],
    "VFAT05":[[1700, 1085],[1180, 1020],[1195, 780],[1750, 840]],
    "VFAT06":[[1750, 840],[1195, 780],[1215, 495],[1805, 555]],
    "VFAT07":[[1805, 555],[1215, 495],[1240, 40],[1805, 40]],
    "VFAT08":[[1115,2615],[755,2615],[745, 2470],[785, 2460],[850, 2190],[1010, 2190],[1075, 2460],[1125, 2470]],
    "VFAT09":[[760, 2190], [850, 2190], [1010, 2190],[1100, 2190], [1120, 1950],[750, 1950]],
    "VFAT10":[[750, 1950],[1120, 1950],[1150, 1650],[730, 1650]],
    "VFAT11":[[730, 1650],[1150, 1650],[1180, 1350],[1160, 1350],[720, 1350]],
    "VFAT12":[[700, 1350],[720, 1350],[1160, 1350],[1180, 1020],[680, 1020]],
    "VFAT13":[[680, 1020],[1180, 1020],[1195, 780],[665, 780]],
    "VFAT14":[[665, 780],[1195, 780],[1215, 495],[645, 495]],
    "VFAT15":[[645, 495],[1215, 495],[1240, 40],[620,40]],
    "VFAT16":[[470,2615],[755,2615],[745, 2470],[785, 2460],[850, 2190],[760, 2190],[390, 2240]],
    "VFAT17":[[390, 2240],[760, 2190],[750, 1950],[340, 1990]],
    "VFAT18":[[340, 1990],[750, 1950],[730, 1650],[280, 1700]],
    "VFAT19":[[280, 1700], [730, 1650], [720, 1350],[700, 1350],[220, 1385]],
    "VFAT20":[[220, 1385],[700, 1350],[680, 1020],[160, 1085]],
    "VFAT21":[[160, 1085],[680, 1020],[665, 780],[110, 840]],
    "VFAT22":[[110, 840],[665, 780],[645, 495],[55, 555]],
    "VFAT23":[[55, 555],[645, 495],[620,40],[55, 40]]
    }